[
	{
		"Title":"11",
		"Wochentag":"Dienstag",
		"Datum":"11.03.2019",
		"Tagesmen_x00fc_":"VegetarischesEieromelette mit Rahmspinat und Salzkartoffeln",
		"Preis_x0020_Tagesmen_x00fc_":"3,60€",
		"Vegetarisches_x0020_Gericht":"Gekochte Rinderbrust mit Meerrettichsauce, dazu Bouillonkartoffeln und buntes Wurzelgemüse",
		"Preis_x0020_Vegetarisches_x0020_":"4,5€",
		"Trendgericht":"Gyrosgeschnetzeltesvom Schwein, mit Gemüse, roten Zwiebeln, Tzazikidipund Fladenbrot",
		"Preis_x0020_Trendgericht":"5,4€",
		"Gesund_x0020_Punkten":"Menü 1",
		"Feiertag":false,
		"Feiertag2":null
	},
	{
		"Title":"11",
		"Wochentag":"Mittwoch",
		"Datum":"12.03.2019",
		"Tagesmen_x00fc_":"BayerischerSpanferkel-Rollbratenmit Kartoffelknödelund einem Tagesdessert",
		"Preis_x0020_Tagesmen_x00fc_":"3,8€",
		"Vegetarisches_x0020_Gericht":"Tagliatelle mit vegetarischem Pilzragout oder Schinkenwurst in Tomatensauce,dazu geriebener Hartkäse",
		"Preis_x0020_Vegetarisches_x0020_":"4€",
		"Trendgericht":"XL CLUB BURGER Hühnchensteak im Vollkornbrot, mit Salat, Tomaten, Gurken undgegrilltem Speck, Pommes Frites",
		"Preis_x0020_Trendgericht":"5,4€",
		"Gesund_x0020_Punkten":"Menü 2",
		"Feiertag":false,
		"Feiertag2":null
	},
	{
		"Title":"11",
		"Wochentag":"Donnerstag",
		"Datum":"13.03.2019",
		"Tagesmen_x00fc_":"HackfleischröllchenCevapcici Art, mit Ajvardip und Paprikareis,dazu ein Dessert",
		"Preis_x0020_Tagesmen_x00fc_":"3,8€",
		"Vegetarisches_x0020_Gericht":"VEGGIE BOWL l gebratene Pastinaken (warm) l l Rotkraut l Kirschtomaten l l gerösteter Sesam l Avocadocreme",
		"Preis_x0020_Vegetarisches_x0020_":"4€",
		"Trendgericht":"gekochte Rindfleischstreifen aus dem Wok, mit Lauch in süß-würziger Honig-Sojasauce, dazu Basmatireis",
		"Preis_x0020_Trendgericht":"5,4€",
		"Gesund_x0020_Punkten":"Menü 2",
		"Feiertag":false,
		"Feiertag2":null
	},
	{
		"Title":"11",
		"Wochentag":"Freitag",
		"Datum":"14.03.2019",
		"Tagesmen_x00fc_":"Apfelstrudel mit Nüssen und Rosinen, dazu Vanillesauce",
		"Preis_x0020_Tagesmen_x00fc_":"3,8€",
		"Vegetarisches_x0020_Gericht":"Seelachsfilet nach Müllerin Art gebraten, mit frischen Zitronen-Karotten und Petersilienkartoffeln",
		"Preis_x0020_Vegetarisches_x0020_":"4€",
		"Trendgericht":"Schweinefilet am Stück gebraten mit Waldpilzsauce,serviert auf Kartoffelrösti",
		"Preis_x0020_Trendgericht":"5,4€",
		"Gesund_x0020_Punkten":"Menü 2",
		"Feiertag":false,
		"Feiertag2":null
	}
]